<?xml version="1.0" encoding="UTF-8"?>
<svg width="92px" height="92px" viewBox="0 0 92 92" version="1.1" xmlns="http://www.w3.org/2000/svg" xmlns:xlink="http://www.w3.org/1999/xlink">
    <!-- Generator: Sketch 60.1 (88133) - https://sketch.com -->
    <title>arrow 4</title>
    <desc>Created with Sketch.</desc>
    <g id="Entrega-1" stroke="none" stroke-width="1" fill="none" fill-rule="evenodd" opacity="0.5">
        <g id="Atoms/Arrow">
            <g id="Group">
                <circle id="Oval" fill="#FFFFFF" cx="46" cy="46" r="46"></circle>
                <g id="Solid/Arrows/angle-right" transform="translate(23.000000, 23.000000)" fill="#FFD102">
                    <path d="M33.028125,25.59375 L20.278125,38.3437501 C19.396875,39.2250001 17.971875,39.2250001 17.1,38.3437501 L14.98125,36.2250001 C14.1,35.34375 14.1,33.91875 14.98125,33.046875 L24.01875,24.009375 L14.98125,14.971875 C14.1,14.090625 14.1,12.665625 14.98125,11.7937499 L17.090625,9.65624994 C17.971875,8.77499994 19.396875,8.77499994 20.26875,9.65624994 L33.01875,22.40625 C33.909375,23.2875 33.909375,24.7125 33.028125,25.59375 L33.028125,25.59375 Z" id="angle-right"></path>
                </g>
            </g>
        </g>
    </g>
</svg>