<?xml version="1.0" encoding="UTF-8"?>
<svg width="24px" height="24px" viewBox="0 0 24 24" version="1.1" xmlns="http://www.w3.org/2000/svg" xmlns:xlink="http://www.w3.org/1999/xlink">
    <!-- Generator: Sketch 59.1 (86144) - https://sketch.com -->
    <title>Graphics/004-leadership</title>
    <desc>Created with Sketch.</desc>
    <g id="Entrega-1" stroke="none" stroke-width="1" fill="none" fill-rule="evenodd">
        <g id="Graphics/004-leadership" fill="#1C355E">
            <path d="M3.42044996,5.88259997 C4.14539997,4.51669997 5.84044997,3.99709997 7.20634998,4.72209997 C8.57224999,5.44704997 9.09184999,7.14209998 8.36684998,8.50799999 L8.36684998,8.50799999 L12.46685,5.67199997 C12.64345,5.54919997 12.88555,5.58809997 13.01485,5.75999997 L13.01485,5.75999997 L14.21485,7.35999998 C14.2794,7.44574998 14.3068,7.55384998 14.29085,7.65999998 C14.274,7.76649998 14.21485,7.86169998 14.12685,7.92399998 L14.12685,7.92399998 L8.69484999,11.804 L8.69484999,14 L11.09485,14 C12.1994,14 13.09485,14.89545 13.09485,16 L13.09485,16 L13.09485,19.2 L16.69485,19.2 C16.9158,19.2 17.09485,19.3791 17.09485,19.6 L17.09485,19.6 L17.09485,23.6 C17.09485,23.8209 16.91575,24 16.69485,24 L16.69485,24 L8.69484999,24 C8.47394999,24 8.29484998,23.8209 8.29484998,23.6 L8.29484998,23.6 L8.29484998,19.6 C8.29484998,19.3791 8.47394999,19.2 8.69484999,19.2 L8.69484999,19.2 L9.89484999,19.2 L9.89484999,17.2 L7.09484998,17.2 L7.09484998,23.6 C7.09484998,23.8209 6.91574998,24 6.69484998,24 L6.69484998,24 L4.29484997,24 C4.07394997,24 3.89484997,23.8209 3.89484997,23.6 L3.89484997,23.6 L3.89484997,16.364 L3.42284996,17.032 C3.35409996,17.1293 3.24559996,17.19085 3.12684996,17.2 C3.00959996,17.2097 2.89399996,17.16725 2.81084996,17.084 L2.81084996,17.084 L0.694849953,14.956 C-0.0594500502,14.2059 -0.0946000504,12.99665 0.614849953,12.204 L0.614849953,12.204 L3.19884996,9.33199999 C3.27444996,9.24819999 3.38199996,9.20024999 3.49484996,9.19999999 L3.49484996,9.19999999 L3.93884997,9.19999999 C3.04864996,8.33194998 2.83749996,6.98084998 3.42044996,5.88259997 Z M12.60685,6.54799998 L7.80684998,9.87199999 L6.65084998,12.18 C6.61264998,12.25465 6.55189998,12.31535 6.47724998,12.3536 C6.28059998,12.45435 6.03959998,12.3766 5.93884997,12.18 L5.93884997,12.18 L4.84684997,9.99999999 L3.67484997,9.99999999 L1.20684996,12.74 C0.774499953,13.2158 0.793899953,13.9478 1.25084996,14.4 L1.25084996,14.4 L3.04284996,16.184 L3.71884997,15.24 L2.41084996,13.876 C2.25839996,13.72045 2.25839996,13.47155 2.41084996,13.316 L2.41084996,13.316 L4.01084997,11.716 C4.12589997,11.6025 4.29789997,11.56935 4.44684997,11.632 C4.59619997,11.69335 4.69404997,11.8385 4.69484997,12 L4.69484997,12 L4.69484997,23.2 L6.29484998,23.2 L6.29484998,16.8 C6.29484998,16.5791 6.47394998,16.4 6.69484998,16.4 L6.69484998,16.4 L10.29485,16.4 C10.51575,16.4 10.69485,16.5791 10.69485,16.8 L10.69485,16.8 L10.69485,19.2 L12.29485,19.2 L12.29485,16 C12.29485,15.33725 11.7576,14.8 11.09485,14.8 L11.09485,14.8 L8.29484998,14.8 C8.07394998,14.8 7.89484998,14.6209 7.89484998,14.4 L7.89484998,14.4 L7.89484998,11.6 C7.89544998,11.47125 7.95794998,11.35065 8.06284998,11.276 L8.06284998,11.276 L13.33085,7.51199998 L12.60685,6.54799998 Z M16.29485,20 L9.09484999,20 L9.09484999,23.2 L16.29485,23.2 L16.29485,20 Z M3.89484997,12.96 L3.25484996,13.6 L3.89484997,14.284 L3.89484997,12.96 Z M13.5482516,10.0766171 L14.0212916,10.7217371 L12.9310388,11.5211747 L12.4579988,10.8760547 L13.5482516,10.0766171 Z M6.84684998,9.99999999 L5.74284997,9.99999999 L6.29484998,11.104 L6.84684998,9.99999999 Z M18.4594112,6.47684428 L18.9326912,7.12180428 L14.9339392,10.0561403 L14.4606592,9.41118029 L18.4594112,6.47684428 Z M5.89484997,5.19999997 C4.79029997,5.19999997 3.89484997,6.09544998 3.89484997,7.19999997 C3.89484997,8.30454998 4.79029997,9.19999997 5.89484997,9.19999997 C6.99939998,9.19999997 7.89484997,8.30454998 7.89484997,7.19999997 C7.89484997,6.09544998 6.99939998,5.19999997 5.89484997,5.19999997 Z M20.29485,-5.00000228e-08 C20.51575,-5.00000228e-08 20.69485,0.179099951 20.69485,0.399999952 C20.69485,1.94639996 21.94845,3.19999996 23.49485,3.19999996 C23.7158,3.19999996 23.89485,3.37909996 23.89485,3.59999996 C23.89485,3.82089997 23.71575,3.99999995 23.49485,3.99999995 C21.94845,3.99999995 20.69485,5.25359997 20.69485,6.79999998 C20.69485,7.02089998 20.51575,7.19999998 20.29485,7.19999998 C20.07395,7.19999998 19.89485,7.02089998 19.89485,6.79999998 C19.89485,5.25359997 18.64125,3.99999995 17.09485,3.99999995 C16.87395,3.99999995 16.69485,3.82089997 16.69485,3.59999996 C16.69485,3.37909996 16.87395,3.19999996 17.09485,3.19999996 C18.64125,3.19999996 19.89485,1.94639996 19.89485,0.399999952 C19.89485,0.179099951 20.07395,-5.00000228e-08 20.29485,-5.00000228e-08 Z M16.870803,4.46629544 L17.314563,5.13189545 L14.915075,6.73165025 L14.471315,6.06605025 L16.870803,4.46629544 Z M20.29485,2.04799996 C19.94995,2.71299996 19.40785,3.25509996 18.74285,3.59999996 C19.4079,3.94489997 19.95,4.48699997 20.29485,5.15199997 C20.63975,4.48699997 21.18185,3.94489997 21.84685,3.59999996 C21.18185,3.25509996 20.63975,2.71299996 20.29485,2.04799996 Z" id="Combined-Shape"></path>
        </g>
    </g>
</svg>