<?xml version="1.0" encoding="UTF-8"?>
<svg width="24px" height="24px" viewBox="0 0 24 24" version="1.1" xmlns="http://www.w3.org/2000/svg" xmlns:xlink="http://www.w3.org/1999/xlink">
    <!-- Generator: Sketch 59.1 (86144) - https://sketch.com -->
    <title>Graphics/002-open-book</title>
    <desc>Created with Sketch.</desc>
    <g id="Entrega-1" stroke="none" stroke-width="1" fill="none" fill-rule="evenodd">
        <g id="Graphics/002-open-book" fill="#1C355E">
            <path d="M19.4213334,0.0253566753 C19.5447018,-0.0205848454 19.6820117,-0.00341525469 19.7890059,0.0712514123 C19.8967954,0.145871296 19.9610761,0.268444396 19.9610761,0.399391765 L19.9610761,0.399391765 L19.9610761,16.7674386 C19.9610761,16.9395088 19.8512749,17.0916024 19.688,17.1462924 C16.1772632,18.3163977 12.2218012,20.6790176 12.182269,20.7025497 C12.0589006,20.7767954 11.9047953,20.7788071 11.7798363,20.7077427 C11.6548772,20.6370995 11.5774503,20.5041404 11.5774503,20.3604211 L11.5774503,20.3604211 L11.5774503,4.65029237 C11.0875789,4.44547365 9.83925145,3.99237424 8.3836725,3.99237424 C5.54722804,3.99237424 3.19260815,4.50456137 2.39536838,4.70058476 L2.39536838,4.70058476 L2.39536838,21.4435088 C3.36865493,21.2131462 5.63382453,20.7596258 8.3836725,20.7596258 C10.1019415,20.7596258 11.5223392,21.3169591 11.9922339,21.5245381 C12.5208421,21.3309006 14.2294737,20.7596258 15.9688889,20.7596258 C18.6444913,20.7596258 20.6533334,21.1895673 21.5579883,21.4267135 L21.5579883,21.4267135 L21.5579883,4.71616371 C21.4262457,4.68977775 21.2553919,4.65665494 21.0513685,4.61913447 C20.8345731,4.57922804 20.6912749,4.37122804 20.7311813,4.15405845 C20.7711345,3.93768418 20.9798831,3.79396488 21.1958831,3.83387131 C21.7308538,3.93211693 22.0438363,4.00196488 22.0438363,4.00196488 C22.2267135,4.04229236 22.3564445,4.20439763 22.3564445,4.3916257 L22.3564445,4.3916257 L22.3564445,21.9572398 C22.3564445,22.0854269 22.2949708,22.2059883 22.1907837,22.2810293 C22.0858012,22.356117 21.9516258,22.3760468 21.8314854,22.3361404 C21.8079533,22.3281872 19.4465497,21.5580819 15.9689357,21.5580819 C14.4742456,21.5580819 12.9580351,22.0327486 12.3759532,22.2363509 L12.3759532,22.2363509 L12.3759532,23.1549474 L21.9572398,23.1549474 C22.6175439,23.1549474 23.1549006,22.6175907 23.1549006,21.9572866 L23.1549006,21.9572866 L23.1549006,6.38769588 C23.1549006,6.167345 23.3333334,5.9884912 23.5541053,5.9884912 C23.7748772,5.9884912 23.9533568,6.167345 23.9533568,6.38774267 L23.9533568,6.38774267 L23.9533568,21.9573334 C23.9533568,23.0580117 23.0578714,23.9534503 21.9572398,23.9534503 L21.9572398,23.9534503 L1.99621048,23.9534503 C0.895532117,23.9534503 9.35172519e-05,23.057965 9.35172519e-05,21.9573334 L9.35172519e-05,21.9573334 L9.35172519e-05,6.38774267 C9.35172519e-05,6.16739179 0.178947319,5.98853799 0.399298197,5.98853799 C0.619649075,5.98853799 0.798502877,6.16739179 0.798502877,6.38774267 L0.798502877,6.38774267 L0.798502877,21.9573334 C0.798502877,22.6176375 1.3358596,23.1549942 1.9961637,23.1549942 L1.9961637,23.1549942 L11.5774503,23.1549942 L11.5774503,22.2164211 C11.090386,22.0124445 9.84322806,21.5581287 8.3836725,21.5581287 C4.89370757,21.5581287 2.13309937,22.3334269 2.10554382,22.3410059 C2.06961399,22.3513919 2.03288885,22.3565848 1.9961637,22.3565848 C1.91031575,22.3565848 1.82568417,22.3290293 1.75541516,22.2759299 C1.65599996,22.2004679 1.59691224,22.0822924 1.59691224,21.9573334 L1.59691224,21.9573334 L1.59691224,4.3916257 C1.59691224,4.21356722 1.71508768,4.05665494 1.88636253,4.00795318 C2.00294733,3.97445611 4.77632746,3.19396488 8.3836725,3.19396488 C10.4504327,3.19396488 12.0864094,4.00042102 12.1550877,4.03433915 C12.2904327,4.10217541 12.3758597,4.24032745 12.3758597,4.3916257 L12.3758597,4.3916257 L12.3758597,19.6669942 C13.5922807,18.9747837 16.4375205,17.4285848 19.1626199,16.4816374 L19.1626199,16.4816374 L19.1626199,0.983111065 C16.2271813,2.1636023 13.4154386,3.91298242 13.3859181,3.93174266 C13.1986901,4.04870172 12.9523743,3.9916257 12.8357895,3.8047719 C12.7188304,3.61791809 12.7759064,3.3716023 12.9627602,3.25464324 C12.9951345,3.23466663 16.2271813,1.22339177 19.4213334,0.0253566753 Z M4.28814032,17.1802573 C4.40589471,17.1487252 7.20725144,16.4117427 9.67242104,16.9902222 C9.88720467,17.0405146 10.020538,17.2552983 9.97029239,17.4696608 C9.91999999,17.6844445 9.70399999,17.8169825 9.49043274,17.7674854 C7.21885378,17.2345263 4.52173096,17.9439532 4.49497073,17.9515322 C4.46021049,17.9607486 4.42549704,17.9655205 4.39115786,17.9655205 C4.2150643,17.9655205 4.05380114,17.8477193 4.0058947,17.6692866 C3.94881868,17.4561404 4.07536839,17.2373334 4.28814032,17.1802573 Z M17.4452398,13.9912515 C17.6572164,13.9249591 17.8799532,14.0419649 17.9462456,14.2519298 C18.0129123,14.4618947 17.8963743,14.686269 17.6863626,14.7529357 C16.5274386,15.1190176 14.1775907,16.3127018 14.1540585,16.3246784 C14.0961404,16.3541988 14.0338714,16.3681872 13.973193,16.3681872 C13.827883,16.3681872 13.687345,16.2883743 13.6167018,16.1502222 C13.5169123,15.9534503 13.5951345,15.713076 13.791579,15.6132866 C13.8905731,15.5629942 16.2244211,14.37731 17.4452398,13.9912515 Z M4.28814032,14.7849357 C4.40589471,14.7529825 7.20725144,14.0164211 9.67242104,14.5949006 C9.88720467,14.645193 10.020538,14.8599766 9.97029239,15.0743392 C9.91999999,15.2891228 9.70399999,15.4220819 9.49043274,15.3721638 C7.21885378,14.8392047 4.52173096,15.5486316 4.49497073,15.5562105 C4.46021049,15.5654269 4.42549704,15.5701988 4.39115786,15.5701988 C4.2150643,15.5701988 4.05380114,15.4523977 4.0058947,15.2739649 C3.94881868,15.0608187 4.07536839,14.8420117 4.28814032,14.7849357 Z M17.4452398,11.5959298 C17.6572164,11.5296374 17.8799532,11.6465965 17.9462456,11.8566082 C18.0129123,12.0665731 17.8963743,12.2909474 17.6863626,12.357614 C16.5274386,12.7236959 14.1775907,13.9173801 14.1540585,13.9293567 C14.0961404,13.9588772 14.0338714,13.9728655 13.973193,13.9728655 C13.827883,13.9728655 13.687345,13.8930526 13.6167018,13.7549006 C13.5169123,13.5581287 13.5951345,13.3177544 13.791579,13.2179649 C13.8905731,13.1676725 16.2244211,11.9819883 17.4452398,11.5959298 Z M4.28814032,12.389614 C4.40589471,12.3576608 7.20725144,11.6215205 9.67242104,12.1995789 C9.88720467,12.2498713 10.020538,12.464655 9.97029239,12.6790175 C9.91999999,12.8938012 9.70399999,13.0267602 9.49043274,12.9768421 C7.21885378,12.443883 4.52173096,13.1533099 4.49497073,13.1608889 C4.46021049,13.1701053 4.42549704,13.1748772 4.39115786,13.1748772 C4.2150643,13.1748772 4.05380114,13.057076 4.0058947,12.8786433 C3.94881868,12.6654971 4.07536839,12.4466901 4.28814032,12.389614 Z M17.4452398,9.20060818 C17.6572164,9.13431578 17.8799532,9.25127484 17.9462456,9.46128654 C18.0129123,9.67125145 17.8963743,9.89562572 17.6863626,9.96229239 C16.5274386,10.3283743 14.1775907,11.5220585 14.1540585,11.5340351 C14.0961404,11.5635556 14.0338714,11.5775439 13.973193,11.5775439 C13.827883,11.5775439 13.687345,11.497731 13.6167018,11.3595789 C13.5169123,11.162807 13.5951345,10.9224327 13.791579,10.8226433 C13.8905731,10.7723509 16.2244211,9.58666666 17.4452398,9.20060818 Z M4.28814032,9.99429239 C4.40589471,9.96276023 7.20725144,9.22619882 9.67242104,9.8042573 C9.88720467,9.8545497 10.020538,10.0693333 9.97029239,10.2836959 C9.91999999,10.4984795 9.70399999,10.6314386 9.49043274,10.5815205 C7.21885378,10.0485614 4.52173096,10.7579883 4.49497073,10.7655672 C4.46021049,10.7747368 4.42549704,10.7791345 4.39115786,10.7791345 C4.2150643,10.7791345 4.05380114,10.6617544 4.0058947,10.4833216 C3.94881868,10.2701754 4.07536839,10.0513684 4.28814032,9.99429239 Z M17.4452398,6.80528653 C17.6572164,6.73899413 17.8799532,6.85595319 17.9462456,7.06596489 C18.0129123,7.2759298 17.8963743,7.50030407 17.6863626,7.56697074 C16.5274386,7.93305261 14.1775907,9.12673683 14.1540585,9.13871344 C14.0961404,9.16823391 14.0338714,9.18222221 13.973193,9.18222221 C13.827883,9.18222221 13.687345,9.10240934 13.6167018,8.9642573 C13.5169123,8.76748537 13.5951345,8.5271111 13.791579,8.42732162 C13.8905731,8.37702922 16.2244211,7.19134501 17.4452398,6.80528653 Z M4.28814032,7.59897074 C4.40589471,7.56743858 7.20725144,6.83045612 9.67242104,7.40893565 C9.88720467,7.45922805 10.020538,7.67401168 9.97029239,7.88837425 C9.91999999,8.10315788 9.70399999,8.23611694 9.49043274,8.18619881 C7.21885378,7.65323975 4.52173096,8.36266665 4.49497073,8.3702456 C4.46021049,8.37941519 4.42549704,8.38381285 4.39115786,8.38381285 C4.2150643,8.38381285 4.05380114,8.26643273 4.0058947,8.08799998 C3.94881868,7.874807 4.07536839,7.65604677 4.28814032,7.59897074 Z M17.4452398,4.41001166 C17.6572164,4.34371927 17.8799532,4.46067833 17.9462456,4.67069003 C18.0129123,4.88065494 17.8963743,5.10502921 17.6863626,5.17169588 C16.5274386,5.53777775 14.1775907,6.73146197 14.1540585,6.74343857 C14.0961404,6.77295904 14.0338714,6.78694735 13.973193,6.78694735 C13.827883,6.78694735 13.687345,6.7070877 13.6167018,6.56898243 C13.5169123,6.37216372 13.5951813,6.13183623 13.791579,6.03204676 C13.8905731,5.98175436 16.2244211,4.79607015 17.4452398,4.41001166 Z" id="Combined-Shape"></path>
        </g>
    </g>
</svg>