<?xml version="1.0" encoding="UTF-8"?>
<svg width="319px" height="41px" viewBox="0 0 319 41" version="1.1" xmlns="http://www.w3.org/2000/svg" xmlns:xlink="http://www.w3.org/1999/xlink">
    <!-- Generator: Sketch 60.1 (88133) - https://sketch.com -->
    <title>Atoms/LogoClaim-Blue</title>
    <desc>Created with Sketch.</desc>
    <g id="Symbols" stroke="none" stroke-width="1" fill="none" fill-rule="evenodd">
        <g id="Organisms/Header/Blue" transform="translate(0.000000, -6.000000)" fill="#1C355E">
            <g id="Group-42" transform="translate(0.000000, 6.000000)">
                <g id="Atoms/Logo-Blue">
                    <g id="LogoClaim-Blue">
                        <polygon id="Path" fill-rule="nonzero" points="5.27817421 41 0 41 0 35.7454276 0 5.25457235 0 0 5.27817421 0 319 0 319 5.25457235 5.27817421 5.25457235 5.27817421 35.7454276 319 35.7454276 319 41"></polygon>
                        <polygon id="Path" fill-rule="nonzero" points="28.8501775 31 28.812071 20.4218062 23.7057988 29.061674 21.2506509 29.061674 16.187929 20.7136564 16.187929 31 11 31 11 11 15.6163314 11 22.5571598 22.5748899 29.3401183 11 33.9564497 11 34 31"></polygon>
                        <g id="Group" transform="translate(38.000000, 10.000000)" fill-rule="nonzero">
                            <path d="M11.8053254,10.1628947 C11.033224,10.7139205 10.0919447,10.9778867 9.14497041,10.9089474 L5.98579882,10.9089474 L5.98579882,5.02342105 L9.14497041,5.02342105 C10.099154,4.95067589 11.0466369,5.23212736 11.8053254,5.81368421 C12.4163693,6.38131485 12.7380935,7.19344194 12.6810256,8.02421053 C12.7212791,8.83609232 12.4009592,9.62445985 11.8053254,10.1794737 M17.419783,11.7986842 C18.1178045,10.6497581 18.4787893,9.32871348 18.4617554,7.98552632 C18.476268,6.59363213 18.0916844,5.22657196 17.3532742,4.04526316 C16.597481,2.89395943 15.5095602,1.99801893 14.2328994,1.47552632 C12.7400851,0.826840985 11.1218402,0.515454752 9.49414201,0.563684211 L0.288205128,0.563684211 L0.288205128,20.6131579 L5.98579882,20.6131579 L5.98579882,15.3078947 L9.10617357,15.3078947 L12.7475345,20.6573684 L18.8441815,20.6573684 L14.5211045,14.3518421 C15.6837269,13.7577373 16.6712413,12.8721259 17.3865286,11.7821053" id="Shape"></path>
                            <path d="M37.2615976,16.8828947 C36.4808654,16.9165139 35.7081484,16.7142646 35.0446351,16.3026316 C34.5338026,15.976024 34.2215162,15.4155402 34.2132742,14.8105263 C34.2020933,14.309197 34.3473435,13.8167798 34.6289546,13.4013158 C35.0078784,12.9199491 35.4718212,12.5116662 35.997929,12.1965789 L40.3265483,16.065 C39.4098867,16.6146349 38.3589226,16.9014724 37.2893097,16.8939474 M36.5798817,4.27736842 C36.942231,3.98124736 37.4037099,3.83313391 37.8712623,3.86289474 C38.3053434,3.83921784 38.7336892,3.97048324 39.0795069,4.23315789 C39.3631375,4.4840499 39.5162367,4.85042133 39.4951874,5.22789474 C39.4700395,5.63722427 39.3080811,6.02635257 39.0351677,6.33315789 C38.5677694,6.79684347 38.0192923,7.17142209 37.416785,7.43842105 C37.0383818,7.08048136 36.6899014,6.69235143 36.3748126,6.27789474 C36.2028233,6.00080017 36.1019356,5.68572959 36.0810651,5.36052632 C36.0749715,4.93662803 36.2576539,4.53184575 36.5798817,4.25526316 M48.6013609,11.1410526 L44.1951479,9.80921053 C44.0153458,10.7939987 43.7214782,11.7546411 43.3194477,12.6718421 L40.3653452,10.0578947 C41.4697577,9.52198661 42.4380506,8.7435551 43.1975148,7.78105263 C43.8094613,6.99094107 44.1321341,6.01598345 44.1120118,5.01789474 C44.1560219,3.63642566 43.5182187,2.32116215 42.4049507,1.49763158 C41.0934429,0.583211092 39.5139399,0.130179293 37.9156016,0.21 C36.703075,0.178350163 35.4976805,0.40441193 34.3795464,0.873157895 C33.4235517,1.23054459 32.5971708,1.86585767 32.0073964,2.69684211 C31.4369872,3.5050185 31.1364043,4.47182588 31.1483235,5.46 C31.1483235,6.86921053 31.769073,8.19552632 33.0604536,9.52184211 C31.811152,10.1253584 30.7157333,11.0040624 29.8569428,12.0915789 C29.1824504,13.064486 28.8333058,14.2249226 28.8593097,15.4073684 C28.8499381,16.4803648 29.2298371,17.5205818 29.9289941,18.3363158 C30.688634,19.246077 31.666719,19.9494704 32.7722485,20.3810526 C34.0814752,20.8936586 35.4783104,21.1470619 36.884714,21.1271053 C38.1125934,21.1316878 39.3336732,20.9452353 40.5039053,20.5744737 C41.6191529,20.2305917 42.6724389,19.7120066 43.6242801,19.0381579 L45.9132939,21.0276316 L48.8673964,17.6731579 L46.7446548,15.7610526 C47.6133184,14.3438799 48.2319398,12.7887322 48.5736489,11.1631579" id="Shape"></path>
                            <polygon id="Path" points="78.6467456 0.541578947 71.7409073 12.1523684 64.63 0.541578947 59.9743787 0.541578947 59.9743787 20.6131579 65.2119527 20.6131579 65.2119527 10.29 70.3719329 18.6678947 72.9048126 18.6678947 78.0647929 9.99710526 78.147929 20.6131579 83.385503 20.6131579 83.3023669 0.541578947"></polygon>
                            <path d="M98.9042406,10.1628947 C98.1300235,10.7138901 97.1870329,10.9777865 96.2383432,10.9089474 L93.0791716,10.9089474 L93.0791716,5.02342105 L96.2383432,5.02342105 C97.1939925,4.95295642 98.1424117,5.2341003 98.9042406,5.81368421 C99.5132441,6.38234191 99.8328762,7.194327 99.7743984,8.02421053 C99.8536051,8.84104913 99.5289473,9.64518264 98.9042406,10.1794737 M104.557495,11.7986842 C105.255517,10.6497581 105.616501,9.32871348 105.599467,7.98552632 C105.622294,6.59635657 105.247381,5.22949761 104.518698,4.04526316 C103.772757,2.89210269 102.694759,1.99060017 101.426036,1.45894737 C99.9314098,0.809811281 98.3112624,0.498423165 96.6817357,0.547105263 L87.464714,0.547105263 L87.464714,20.6131579 L93.1623077,20.6131579 L93.1623077,15.3078947 L96.2826824,15.3078947 L99.9406706,20.6573684 L106.037318,20.6573684 L101.714241,14.3518421 C102.850529,13.7351272 103.820322,12.8534718 104.540868,11.7821053" id="Shape"></path>
                            <path d="M120.985187,9.46105263 C119.73666,9.02505919 118.458703,8.67787306 117.160927,8.42210526 C116.154807,8.22823931 115.166674,7.95096061 114.206824,7.59315789 C113.668407,7.4407434 113.295706,6.95200812 113.292327,6.39394737 C113.290623,5.84970891 113.597452,5.35122164 114.084892,5.10631579 C114.839769,4.71821857 115.687664,4.54607147 116.534635,4.60894737 C118.493237,4.64504292 120.41102,5.17346807 122.110296,6.14526316 L123.856154,1.91210526 C122.793758,1.31055931 121.643732,0.877987879 120.447574,0.63 C119.164764,0.330566386 117.852116,0.17669459 116.534635,0.171315789 C114.857165,0.120870905 113.187311,0.416244953 111.629606,1.03894737 C110.43418,1.51879651 109.397403,2.32283754 108.636706,3.36 C107.972583,4.33784715 107.624453,5.49491039 107.639073,6.67578947 C107.586351,7.87946151 107.981071,9.06018248 108.747554,9.99157895 C109.451951,10.8000402 110.352706,11.4146572 111.36357,11.7765789 C112.600741,12.2066844 113.865387,12.5537753 115.149034,12.8155263 C116.1758,13.001061 117.180609,13.2918134 118.147475,13.6831579 C118.696473,13.8740424 119.063668,14.391061 119.061972,14.9707895 C119.061972,16.0760526 117.981203,16.59 115.775325,16.59 C114.589696,16.5877675 113.411656,16.40132 112.283609,16.0373684 C111.171987,15.7230371 110.118377,15.2322823 109.163235,14.5839474 L107.289901,18.7728947 C108.436171,19.5196314 109.701147,20.0671305 111.031026,20.3921053 C112.578076,20.8065761 114.173408,21.0147052 115.775325,21.0110526 C117.452241,21.0540283 119.120593,20.75892 120.680355,20.1434211 C121.881899,19.6530545 122.930399,18.8517928 123.717594,17.8223684 C124.375445,16.8560108 124.72335,15.7131844 124.715227,14.5452632 C124.784935,13.3392807 124.388209,12.1525559 123.606746,11.2294737 C122.917052,10.4196582 122.026549,9.80421266 121.023984,9.44447368" id="Path"></path>
                            <polygon id="Path" points="162.580947 12.8597368 172.064004 12.8597368 172.064004 8.30052632 162.580947 8.30052632 162.580947 5.145 173.061637 5.145 173.061637 0.541578947 156.589606 0.541578947 156.589606 20.6131579 173.349842 20.6131579 173.349842 16.0539474 162.580947 16.0539474"></polygon>
                            <polygon id="Path" points="182.173353 0.541578947 176.220809 0.541578947 176.220809 20.6131579 190.653235 20.6131579 190.653235 15.6394737 182.173353 15.6394737"></polygon>
                            <polygon id="Path" points="198.684181 12.8597368 208.206036 12.8597368 208.206036 8.30052632 198.684181 8.30052632 198.684181 5.145 209.164872 5.145 209.164872 0.541578947 192.69284 0.541578947 192.69284 20.6131579 209.453077 20.6131579 209.453077 16.0539474 198.684181 16.0539474"></polygon>
                            <polygon id="Path" points="224.134911 11.6992105 218.731065 0.541578947 212.324043 0.541578947 212.324043 20.6131579 217.56716 20.6131579 217.56716 8.715 222.183984 18.6678947 226.052584 18.6678947 230.669408 8.715 230.669408 20.6131579 235.906982 20.6131579 235.906982 0.541578947 229.499961 0.541578947"></polygon>
                            <path d="M246.387673,13.0697368 L248.854043,6.51552632 L251.26499,13.0697368 L246.387673,13.0697368 Z M245.971992,0.547105263 L237.364635,20.6131579 L243.516706,20.6131579 L244.724951,17.4244737 L252.833491,17.4244737 L254.002939,20.6131579 L260.365621,20.6131579 L252.052012,0.547105263 L245.971992,0.547105263 Z" id="Shape"></path>
                            <polygon id="Path" points="275.546272 0.541578947 275.546272 11.7378947 266.977712 0.541578947 261.900868 0.541578947 261.900868 20.6131579 267.354596 20.6131579 267.354596 9.46105263 275.917613 20.6131579 280.994458 20.6131579 280.994458 0.541578947"></polygon>
                            <path d="M147.899112,9.91421053 C147.333577,10.4253396 146.581647,10.6812531 145.82071,10.6215789 L142.949744,10.6215789 L142.949744,10.5773684 L142.994083,10.5773684 L142.994083,5.145 L145.826252,5.145 C146.585123,5.1010437 147.331116,5.35493659 147.904655,5.85236842 C148.431128,6.3943475 148.702957,7.13318142 148.65288,7.88605263 C148.703476,8.63735181 148.431459,9.3746901 147.904655,9.91421053 M152.144596,2.40947368 C150.731282,1.16605263 148.691677,0.541578947 146.114458,0.541578947 L136.958402,0.541578947 L136.958402,20.6573684 L142.949744,20.6573684 L142.949744,15.2636842 L146.108915,15.225 C148.730473,15.225 150.72574,14.5618421 152.139053,13.2355263 C153.552367,11.9092105 154.261795,10.08 154.261795,7.67605263 C154.300592,5.39368421 153.596706,3.65289474 152.139053,2.40947368" id="Shape"></path>
                        </g>
                    </g>
                </g>
            </g>
        </g>
    </g>
</svg>